module cart-system

go 1.19

require (
	github.com/99designs/gqlgen v0.17.16
	github.com/go-resty/resty/v2 v2.7.0
	github.com/oklog/ulid/v2 v2.1.0
	github.com/stretchr/testify v1.8.0
	github.com/vektah/gqlparser/v2 v2.5.0
)

require (
	github.com/agnivade/levenshtein v1.1.1 // indirect
	github.com/cpuguy83/go-md2man/v2 v2.0.1 // indirect
	github.com/davecgh/go-spew v1.1.1 // indirect
	github.com/gorilla/websocket v1.5.0 // indirect
	github.com/hashicorp/golang-lru v0.5.4 // indirect
	github.com/mitchellh/mapstructure v1.3.1 // indirect
	github.com/pmezard/go-difflib v1.0.0 // indirect
	github.com/russross/blackfriday/v2 v2.1.0 // indirect
	github.com/urfave/cli/v2 v2.8.1 // indirect
	github.com/xrash/smetrics v0.0.0-20201216005158-039620a65673 // indirect
	golang.org/x/mod v0.6.0-dev.0.20220106191415-9b9b3d81d5e3 // indirect
	golang.org/x/net v0.0.0-20211029224645-99673261e6eb // indirect
	golang.org/x/sys v0.0.0-20211019181941-9d821ace8654 // indirect
	golang.org/x/text v0.3.7 // indirect
	golang.org/x/tools v0.1.10 // indirect
	golang.org/x/xerrors v0.0.0-20200804184101-5ec99f83aff1 // indirect
	gopkg.in/yaml.v3 v3.0.1 // indirect
)
